[gd_resource type="Resource" load_steps=2 format=2]

[ext_resource path="res://addons/dialogue_manager/dialogue_resource.gd" type="Script" id=1]

[resource]
script = ExtResource( 1 )
resource_version = 3
syntax_version = 2
raw_text = "~ intro

: My bones [shake rate=20 level=5]crack[/shake], my flesh [color=#d62411]snarls[/color], my guts  [shake rate=20 level=5][color=#d62411]fold and contort[/color][/shake].
: [color=#d62411]My hunger grows. My bloodlust consumes. My wrath eternal.[/color]
: [center][shake rate=20 level=10]We'll make them sorry.\\n\\nWe'll make them sorry\\n\\nWe'll make them sorry\\n\\nWe'll make them sorry\\n\\nWe'll make them sorry\\n\\nWe'll make them sorry[/shake][/center]
"
errors = [  ]
titles = {
"intro": "2"
}
lines = {
"0": {
"next_id": "2",
"text": "intro",
"type": "title"
},
"2": {
"character": "",
"character_replacements": [  ],
"next_id": "3",
"replacements": [  ],
"text": "My bones [shake rate=20 level=5]crack[/shake], my flesh [color=#d62411]snarls[/color], my guts  [shake rate=20 level=5][color=#d62411]fold and contort[/color][/shake].",
"translation_key": "My bones [shake rate=20 level=5]crack[/shake], my flesh [color=#d62411]snarls[/color], my guts  [shake rate=20 level=5][color=#d62411]fold and contort[/color][/shake].",
"type": "dialogue"
},
"3": {
"character": "",
"character_replacements": [  ],
"next_id": "4",
"replacements": [  ],
"text": "[color=#d62411]My hunger grows. My bloodlust consumes. My wrath eternal.[/color]",
"translation_key": "[color=#d62411]My hunger grows. My bloodlust consumes. My wrath eternal.[/color]",
"type": "dialogue"
},
"4": {
"character": "",
"character_replacements": [  ],
"next_id": "",
"replacements": [  ],
"text": "[center][shake rate=20 level=10]We'll make them sorry.

We'll make them sorry

We'll make them sorry

We'll make them sorry

We'll make them sorry

We'll make them sorry[/shake][/center]",
"translation_key": "[center][shake rate=20 level=10]We'll make them sorry.

We'll make them sorry

We'll make them sorry

We'll make them sorry

We'll make them sorry

We'll make them sorry[/shake][/center]",
"type": "dialogue"
}
}
